strChassis	speed_rotation_factor_min	speed_rotation_factor_optimal	speed_rotation_factor_max	slideDamp	engine_accel	engine_decel	engine_yaw_accel	engine_pitch_accel	engine_roll_accel	fltMaxSpeedModifier	strCategory	Level
s	f	f	f	f	f	f	f	f	f	f[1]	c	i
player_ywing	0.1	0.3	0.5	1.2	25	30	80	80	40	0.9	mediumfighter	1
player_ywing_longprobe	0.1	0.3	0.35	1.4	25	30	100	100	50	0.9	bomber	2
player_tiebomber	0.1	0.3	0.3	1.2	30	30	80	80	40	0.95	bomber	3
player_bwing	0.1	0.3	0.3	1.3	30	35	75	75	50	0.9	bomber	5
player_hutt_heavy_s01	0.2	0.4	0.5	1.3	35	35	100	100	50	0.92	heavyfighter	2
player_hutt_heavy_s02	0.2	0.4	0.5	1.3	35	35	100	100	50	0.92	heavyfighter	2
player_hutt_turret_ship	0.2	0.4	0.5	1.3	35	35	100	100	50	0.92	heavyfighter	5
player_blacksun_heavy_s01	0.2	0.35	0.4	1.3	40	40	100	100	50	0.97	heavyfighter	4
player_blacksun_heavy_s02	0.2	0.35	0.4	1.3	40	40	100	100	50	0.97	heavyfighter	4
player_blacksun_heavy_s03	0.2	0.35	0.4	1.3	40	40	100	100	50	0.97	heavyfighter	4
player_blacksun_heavy_s04	0.2	0.35	0.4	1.3	40	40	100	100	50	0.97	heavyfighter	4
player_firespray	0.2	0.4	0.4	1.6	35	35	100	100	50	0.9	heavyfighter	5
player_tieoppressor	0.2	0.35	0.4	1.3	35	35	100	100	50	0.9	heavyfighter	5
player_tieinterceptor	0.05	0.8	0.8	1.6	40	60	300	300	150	1	interceptor	3
player_awing	0.05	0.8	0.8	1.6	40	60	250	250	125	1	interceptor	4
player_tieadvanced	0.05	0.8	0.8	1.7	40	60	300	300	150	1	interceptor	4
player_basic_hutt_light	0.2	0.5	0.9	1.9	50	50	600	600	300	0.95	lightfighter	0
player_basic_tiefighter	0.2	0.5	0.9	1.9	50	50	600	600	300	0.97	lightfighter	0
player_basic_z95	0.2	0.5	0.9	1.9	50	50	600	600	300	0.93	lightfighter	0
player_hutt_light_s01	0.2	0.5	0.9	1.8	50	50	600	600	300	0.95	lightfighter	0
player_hutt_light_s02	0.2	0.5	0.9	1.8	50	50	600	600	300	0.95	lightfighter	0
player_tie_light_duty	0.2	0.5	0.9	1.7	50	50	600	600	300	0.96	lightfighter	0
player_z95	0.2	0.5	0.9	1.7	50	50	600	600	300	0.95	lightfighter	0
player_tiefighter	0.2	0.5	0.75	1.8	40	40	500	500	250	0.98	lightfighter	1
player_blacksun_light_s01	0.2	0.5	0.75	1.6	35	35	400	400	200	1	lightfighter	2
player_blacksun_light_s02	0.2	0.5	0.75	1.6	35	35	400	400	200	1	lightfighter	2
player_blacksun_light_s03	0.2	0.5	0.75	1.6	35	35	400	400	200	1	lightfighter	2
player_blacksun_light_s04	0.2	0.5	0.75	1.6	35	35	400	400	200	1	lightfighter	2
player_tie_in	0.2	0.5	0.75	1.6	40	40	400	400	200	0.97	lightfighter	2
player_hutt_medium_s01	0.2	0.4	0.6	1.3	30	35	300	300	150	0.95	mediumfighter	1
player_hutt_medium_s02	0.2	0.4	0.6	1.3	30	35	300	300	150	0.95	mediumfighter	1
player_blacksun_medium_s01	0.2	0.4	0.5	1.3	35	35	200	200	100	0.95	mediumfighter	3
player_blacksun_medium_s02	0.2	0.4	0.5	1.3	35	35	200	200	100	0.95	mediumfighter	3
player_blacksun_medium_s03	0.2	0.4	0.5	1.3	35	35	200	200	100	0.95	mediumfighter	3
player_blacksun_medium_s04	0.2	0.4	0.5	1.3	35	35	200	200	100	0.95	mediumfighter	3
player_vwing	0.05	0.8	0.8	1.6	40	60	250	250	125	1	interceptor	4
player_xwing	0.2	0.4	0.5	1.5	25	30	200	300	150	0.95	mediumFighter	3
player_tieaggressor	0.2	0.4	0.4	1.3	20	30	150	200	100	0.95	mediumfighter	4
player_twing	0.2	0.4	0.8	1.6	45	45	375	375	250	0.95	mediumfighter	4
player_sorosuub_space_yacht	0.2	0.3	0.3	1.1	10	10	50	50	37.5	0.8	pob	0
player_decimator	0.2	0.3	0.3	1.2	10	10	50	50	37.5	0.8	pob	5
player_ykl37r	0.2	0.3	0.3	1.2	10	10	50	50	37.5	0.8	pob	5
player_yt1300	0.2	0.3	0.3	1.2	10	10	50	50	37.5	0.8	pob	5
player_prototype_hutt_light	0.2	0.5	0.9	1.9	50	50	600	600	300	0.95	lightfighter	0
player_prototype_tiefighter	0.2	0.5	0.9	1.9	50	50	600	600	300	0.97	lightfighter	0
player_prototype_z95	0.2	0.5	0.9	1.9	50	50	600	600	300	0.93	lightfighter	0
player_jedi_starfighter	0.2	0.5	0.8	1.6	40	40	400	400	200	0.95	mediumfighter	4
player_arc170	0.2	0.5	0.75	1.7	40	40	400	400	200	0.97	mediumfighter	4
player_grievous_starship	0.2	0.5	0.8	1.6	40	40	400	400	200	0.95	mediumfighter	4
player_tieinterceptor_imperial_guard	0.05	0.8	0.8	1.6	40	60	300	300	150	1	interceptor	3
player_tiefighter_modified	0.2	0.5	0.75	1.8	40	40	500	500	250	0.98	lightfighter	1
player_tieadvanced_modified	0.05	0.8	0.8	1.7	40	60	300	300	150	1	interceptor	4
player_advanced_z95	0.2	0.5	0.9	1.7	50	50	600	600	300	0.95	lightfighter	4
player_advanced_xwing	0.2	0.4	0.5	1.5	25	30	200	300	150	0.95	mediumFighter	4
player_y8_mining_ship	0.2	0.3	0.3	1.2	15	10	50	50	37.5	0.8	pob	5
player_blacksun_vaksai	0.2	0.5	0.75	1.6	35	35	400	400	200	1	mediumFighter	4
player_yt2400	0.2	0.3	0.3	1.2	10	10	50	50	37.5	0.8	pob	5
player_gunship_imperial	0.1	0.2	0.2	1.2	10	10	10	10	10	0.6	pob	5
player_gunship_neutral	0.1	0.2	0.2	1.2	10	10	10	10	10	0.6	pob	5
player_gunship_rebel	0.1	0.2	0.2	1.2	10	10	10	10	10	0.6	pob	5
player_naboo_n1	0.05	0.8	0.8	1.6	40	60	250	250	125	1	interceptor	4
player_tiedefender	0.2	0.4	0.5	1.5	25	30	200	300	150	0.93	mediumFighter	5
player_havoc	0.2	0.55	0.65	1.5	40	45	250	250	125	0.96	mediumFighter	4
